<?xml version="1.0" encoding="utf-8"?>
<!-- Generator: Avocode 2.6.0 - http://avocode.com -->
<svg height="19" width="20" xmlns:xlink="http://www.w3.org/1999/xlink" xmlns="http://www.w3.org/2000/svg" viewBox="0 0 20 19">
    <path fill="#cecece" fill-rule="evenodd" d="M 18 4 L 14 4 L 14 2 C 14 0.89 13.11 0 12 0 L 8 0 C 6.89 0 6 0.89 6 2 L 6 4 L 2 4 C 0.89 4 0.01 4.89 0.01 6 L 0 17 C 0 18.11 0.89 19 2 19 L 18 19 C 19.11 19 20 18.11 20 17 L 20 6 C 20 4.89 19.11 4 18 4 L 18 4 Z M 12 4 L 8 4 L 8 2 L 12 2 L 12 4 L 12 4 Z M 12 4" />
</svg>