<?xml version="1.0" encoding="utf-8"?>
<!-- Generator: Avocode 2.6.0 - http://avocode.com -->
<svg height="14" width="12" xmlns:xlink="http://www.w3.org/1999/xlink" xmlns="http://www.w3.org/2000/svg" viewBox="0 0 12 14">
    <defs>
        <linearGradient y2="100%" y1="0%" x2="0%" x1="0%" id="gradient-1">
            <stop stop-color="#a0003c" offset="0%" />
            <stop stop-color="#e3002b" offset="100%" />
        </linearGradient>
    </defs>
    <path fill="url(#gradient-1)" fill-rule="evenodd" d="M 1.5 12.25 C 1.5 13.07 2.17 13.75 3 13.75 L 9 13.75 C 9.83 13.75 10.5 13.07 10.5 12.25 L 10.5 3.25 L 1.5 3.25 L 1.5 12.25 L 1.5 12.25 Z M 11.25 1 L 8.63 1 L 7.88 0.25 L 4.13 0.25 L 3.38 1 L 0.75 1 L 0.75 2.5 L 11.25 2.5 L 11.25 1 L 11.25 1 Z M 11.25 1" />
</svg>