<?xml version="1.0" encoding="utf-8"?>
<!-- Generator: Avocode 2.6.0 - http://avocode.com -->
<svg height="18" width="14" xmlns:xlink="http://www.w3.org/1999/xlink" xmlns="http://www.w3.org/2000/svg" viewBox="0 0 14 18">
    <defs>
        <linearGradient y2="100%" y1="0%" x2="0%" x1="0%" id="gradient-1">
            <stop stop-color="#a0003c" offset="0%" />
            <stop stop-color="#e3002b" offset="100%" />
        </linearGradient>
    </defs>
    <path fill="url(#gradient-1)" fill-rule="evenodd" d="M 1 16 C 1 17.1 1.9 18 3 18 L 11 18 C 12.1 18 13 17.1 13 16 L 13 4 L 1 4 L 1 16 L 1 16 Z M 14 1 L 10.5 1 L 9.5 0 L 4.5 0 L 3.5 1 L 0 1 L 0 3 L 14 3 L 14 1 L 14 1 Z M 14 1" />
</svg>