<?xml version="1.0" encoding="utf-8"?>
<!-- Generator: Avocode 2.6.0 - http://avocode.com -->
<svg height="12" width="18" xmlns:xlink="http://www.w3.org/1999/xlink" xmlns="http://www.w3.org/2000/svg" viewBox="0 0 18 12">
    <defs>
        <linearGradient y2="100%" y1="0%" x2="0%" x1="0%" id="gradient-1">
            <stop stop-color="#a0003c" offset="0%" />
            <stop stop-color="#e3002b" offset="100%" />
        </linearGradient>
    </defs>
    <path fill="url(#gradient-1)" fill-rule="evenodd" d="M 0 12 L 18 12 L 18 10 L 0 10 L 0 12 L 0 12 Z M 0 7 L 18 7 L 18 5 L 0 5 L 0 7 L 0 7 Z M 0 0 L 0 2 L 18 2 L 18 0 L 0 0 L 0 0 Z M 0 0" />
</svg>